<?xml version="1.0" encoding="utf-8"?>
<!-- Generator: Adobe Illustrator 15.0.2, SVG Export Plug-In . SVG Version: 6.00 Build 0)  -->
<!DOCTYPE svg PUBLIC "-//W3C//DTD SVG 1.1//EN" "http://www.w3.org/Graphics/SVG/1.1/DTD/svg11.dtd">
<svg version="1.1" id="Layer_1" xmlns="http://www.w3.org/2000/svg" xmlns:xlink="http://www.w3.org/1999/xlink" x="0px" y="0px"
	 width="512px" height="571.529px" viewBox="0 0 512 571.529" enable-background="new 0 0 512 571.529" xml:space="preserve">
<path d="M0,0h512v60.235H0V0z M253.625,571.529c-67.559,0-121.654-22.221-162.294-66.662c-40.64-44.455-60.963-102.25-60.963-173.44
	c0-76.515,20.713-137.544,62.132-183.096c41.427-45.544,97.794-68.316,169.125-68.316c65.772,0,118.772,22.11,158.992,66.346
	c40.206,44.228,60.31,102.044,60.31,173.434c0,77.589-20.604,138.941-61.81,184.059
	C377.912,548.971,322.735,571.529,253.625,571.529z M257.566,127.802c-49.133,0-89.044,18.235-119.729,54.721
	C107.154,219,91.809,266.927,91.809,326.309c0,59.309,14.949,107.044,44.854,143.191c29.904,36.177,68.926,54.25,117.065,54.25
	c51.346,0,91.802-17.25,121.39-51.735c29.589-34.485,44.383-82.75,44.383-144.75c0-63.573-14.383-112.706-43.103-147.412
	C347.677,145.147,308.059,127.802,257.566,127.802z"/>
</svg>
